experiment;sklearn;nltk
BL0_baseline_nopreproc_unigram.;0.7775;0.685
MA1_sw_maxdf_85_unigram.;0.8075;0.735
MA2_sw_maxdf_95_unigram.;0.8075;0.735
MI1_mindf_2_unigram.;0.7625;0.685
MI2_mindf_5_unigram.;0.7775;0.685
NG1_nopreproc_bigram.;0.785;0.7175
NG2_nopreproc_uni_bigram.;0.8;0.7125
PO1_partofspeach_all4_unigram.;0.7625;0.72
PO2_partofspeach_noun_verb_unigram.;0.745;0.6475
PO3_partofspeach_adv_verb_unigram.;0.68;0.5825
PO4_partofspeach_adv_noun_unigram.;0.745;0.6475
PO5_partofspeach_all4_bigram.;0.7125;0.72
ST1_porter_stemming_unigram.;0.775;0.6725
ST2_snowball_stemming_unigram.;0.785;0.67
SW1_stopwords_unigram.;0.8075;0.735
SW2_stopwords_bigram.;0.7475;0.735
SW3_stopwords_uni_bigram.;0.8025;0.745
